[
  {
    "language": "fr",
    "items": [
      {
        "title": "Bienvenue au domaine",
        "page": "homepage"
      },
      {
        "title": "Œnotourisme",
        "page": "oenotourisme"
      },
      {
        "title": "Boutique",
        "page": "shop"
      },
      {
        "title": "Contact",
        "page": "contact"
      }
    ]
  }
]